Solving Advent of Code using tidyverse | Trym Nohr Fjørtoft
…
 1library(tidyverse)
 2
 3input <- "11-22,95-115,998-1012,1188511880-1188511890,222220-222224,1698522-1698528,446443-446449,38593856-38593862,565653-565659,824824821-824824827,2121212118-2121212124"
 4
 5data <- tibble(input = input) |>
 6  separate_longer_delim(input, ",") |>
 7  separate(input, into = c("start", "end"), sep = "-") |>
 8  rowwise() |>
 9  mutate(range = list(start:end)) |>
10  unnest_longer(range)
11
12data

# A tibble: 106 × 3
   start end   range
   <chr> <chr> <int>
 1 11    22       11
 2 11    22       12
 3 11    22       13
 4 11    22       14
 5 11    22       15
 6 11    22       16
 7 11    22       17
 8 11    22       18
 9 11    22       19
10 11    22       20
# ℹ 96 more rows
…
